nom;prenom;date_naissance;sexe;description;longitude;latitude;preference;age_min;age_max;distance_max
Garbe;Clara;22/04/1996;f;Slt c clara lol;48.280048;4.062456;2;22;25;10
Kim;Jeremy;20/10/1996;m;yo je flex;48.280948;4.063250;2;19;26;10
Counot;Thibaut;30/05/1997;m;slt sa va;48.270374;4.066324;2;22;24;5
Deffon;Stéphane;22/09/1996;m;yo c stef;48.293540;4.072859;1;20;28;28
Nguyen;Phylicia;02/01/1997;f;;48.300106;4.081017;0;22;24;29
Gaucheler;Mathieu;30/12/1996;m;Jm Patri;48.280048;4.062456;2;19;27;40
Coppola;Sofia;30/12/1997;f;Hello;48.280048;4.062456;2;19;27;40
Pola;Roma;30/10/1996;f;Hello;48.280048;4.062456;2;19;27;40
Ka;Zova;30/10/1995;f;Hello;48.280048;4.062456;2;19;27;40
Ong;Carol;30/10/1999;f;Hello;48.280048;4.062456;2;19;27;40
Stark;Saansa;30/10/1998;f;Hello;48.280048;4.062456;2;19;27;40
Targ;Khaleesi;30/10/1994;f;Hello;48.280048;4.062456;2;19;27;40
Vyas;Heena;30/10/1997;f;Hello;48.280048;4.062456;2;19;27;40
Bois;Jasmin;30/10/1995;f;Hello;48.280048;4.062456;2;19;27;40
La;Monica;30/10/1995;f;Hello;48.280048;4.062456;2;19;27;40
Si;Phoebe;30/10/1996;f;Hello;48.280048;4.062456;2;19;27;40
Fa;Rachel;30/10/1996;f;Hello;48.280048;4.062456;2;19;27;40
Pola;Jainis;30/10/1994;f;Hello;48.280048;4.062456;2;19;27;40
La;Samia;30/10/1999;f;Hello;48.280048;4.062456;2;19;27;40
Do;Hornol;30/10/1994;f;Hello;48.280048;4.062456;2;19;27;40
Kata;Korial;30/10/1997;f;Hello;48.280048;4.062456;2;19;27;40
Tang;Chin Si;30/10/1995;f;Hello;48.280048;4.062456;2;19;27;40
Pola;Sylvia;30/10/1997;f;Hello;48.280048;4.062456;2;19;27;40
